<svg width="21" height="20" viewBox="0 0 21 20" fill="none" xmlns="http://www.w3.org/2000/svg">
<path d="M4.84555 6.25H0.373047V20H4.84555V6.25Z" fill="#1A1A1D"/>
<path d="M17.028 6.41125C16.9805 6.39625 16.9355 6.38 16.8855 6.36625C16.8255 6.3525 16.7655 6.34125 16.7043 6.33125C16.4668 6.28375 16.2068 6.25 15.9018 6.25C13.2943 6.25 11.6405 8.14625 11.0955 8.87875V6.25H6.62305V20H11.0955V12.5C11.0955 12.5 14.4755 7.7925 15.9018 11.25C15.9018 14.3363 15.9018 20 15.9018 20H20.373V10.7212C20.373 8.64375 18.9493 6.9125 17.028 6.41125Z" fill="#1A1A1D"/>
<path d="M2.56055 4.375C3.76867 4.375 4.74805 3.39562 4.74805 2.1875C4.74805 0.979377 3.76867 0 2.56055 0C1.35242 0 0.373047 0.979377 0.373047 2.1875C0.373047 3.39562 1.35242 4.375 2.56055 4.375Z" fill="#1A1A1D"/>
</svg>
