<svg width="37" height="34" viewBox="0 0 37 34" fill="none" xmlns="http://www.w3.org/2000/svg">
<path fill-rule="evenodd" clip-rule="evenodd" d="M22.0804 3.43782e-05L36.9927 16.9797L22.0804 33.9593L17.5722 30L26.3725 19.9797L-3.49335e-06 19.9797L-2.44428e-06 13.9797L26.3725 13.9797L17.5722 3.95934L22.0804 3.43782e-05Z" fill="white"/>
</svg>
